{
    "count": 99,
    "next": "http://localhost:8000/api/vendors/?page=2&page_size=100",
    "previous": null,
    "results": [
        {
            "id": 30,
            "name": "181 Coffee Shop",
            "city": "Alor Setar",
            "cuisines": [
                "Coffee Shop",
                "Malaysian"
            ],
            "lat": 6.1065,
            "lon": 100.3865,
            "description": "Official Kedah Tourism Council registered restaurant",
            "established_year": null,
            "price_range": "$",
            "address": "No. 138, Taman Saga, 05400 Alor Setar",
            "contact_phone": "",
            "contact_email": "",
            "official_website": "",
            "facebook_url": "",
            "instagram_url": "",
            "tripadvisor_url": "",
            "google_maps_url": "",
            "logo_url": "",
            "cover_image_url": "",
            "gallery_images": [],
            "amenities": {},
            "delivery_available": false,
            "takeaway_available": true,
            "reservation_required": false,
            "dress_code": "",
            "rating_average": 0,
            "total_reviews": 0,
            "is_active": true,
            "is_open": true,
            "owner": 1,
            "owner_username": "admin",
            "created_at": "2025-12-14T17:53:51.071087+08:00",
            "updated_at": "2025-12-30T18:20:20.830320+08:00"
        },
        {
            "id": 92,
            "name": "4 Fingers Malaysia",
            "city": "Alor Setar",
            "cuisines": [
                "Fast Food",
                "Chicken"
            ],
            "lat": 6.1121,
            "lon": 100.3711,
            "description": "Official Kedah Tourism Council registered restaurant",
            "established_year": null,
            "price_range": "$$",
            "address": "Lot 16A, Kompleks Perniagaan Ampang, 05050 Alor Setar",
            "contact_phone": "",
            "contact_email": "",
            "official_website": "",
            "facebook_url": "",
            "instagram_url": "",
            "tripadvisor_url": "",
            "google_maps_url": "",
            "logo_url": "",
            "cover_image_url": "",
            "gallery_images": [],
            "amenities": {},
            "delivery_available": false,
            "takeaway_available": true,
            "reservation_required": false,
            "dress_code": "",
            "rating_average": 0,
            "total_reviews": 0,
            "is_active": true,
            "is_open": true,
            "owner": 1,
            "owner_username": "admin",
            "created_at": "2025-12-14T17:53:51.229267+08:00",
            "updated_at": "2025-12-30T18:20:20.841717+08:00"
        },
        {
            "id": 42,
            "name": "Al Ikhwan Sushi",
            "city": "Alor Setar",
            "cuisines": [
                "Japanese",
                "Sushi"
            ],
            "lat": 6.1199,
            "lon": 100.3739,
            "description": "Official Kedah Tourism Council registered restaurant",
            "established_year": null,
            "price_range": "$$",
            "address": "Menara Alor Setar, 05100 Alor Setar",
            "contact_phone": "",
            "contact_email": "",
            "official_website": "",
            "facebook_url": "",
            "instagram_url": "",
            "tripadvisor_url": "",
            "google_maps_url": "",
            "logo_url": "",
            "cover_image_url": "",
            "gallery_images": [],
            "amenities": {},
            "delivery_available": false,
            "takeaway_available": true,
            "reservation_required": false,
            "dress_code": "",
            "rating_average": 0,
            "total_reviews": 0,
            "is_active": true,
            "is_open": true,
            "owner": 1,
            "owner_username": "admin",
            "created_at": "2025-12-14T17:53:51.104927+08:00",
            "updated_at": "2025-12-30T18:20:20.843247+08:00"
        },
        {
            "id": 27,
            "name": "Apcel Beauty & Health",
            "city": "Alor Setar",
            "cuisines": [
                "Cafe",
                "Health"
            ],
            "lat": 6.1148,
            "lon": 100.3708,
            "description": "Official Kedah Tourism Council registered restaurant",
            "established_year": null,
            "price_range": "$$",
            "address": "No. 19, Kompleks Perniagaan Hidayah, 05350 Alor Setar",
            "contact_phone": "",
            "contact_email": "",
            "official_website": "",
            "facebook_url": "",
            "instagram_url": "",
            "tripadvisor_url": "",
            "google_maps_url": "",
            "logo_url": "",
            "cover_image_url": "",
            "gallery_images": [],
            "amenities": {},
            "delivery_available": false,
            "takeaway_available": true,
            "reservation_required": false,
            "dress_code": "",
            "rating_average": 0,
            "total_reviews": 0,
            "is_active": true,
            "is_open": true,
            "owner": 1,
            "owner_username": "admin",
            "created_at": "2025-12-14T17:53:51.062249+08:00",
            "updated_at": "2025-12-30T18:20:20.844727+08:00"
        },
        {
            "id": 79,
            "name": "Asiatic Thai Cuisine",
            "city": "Alor Setar",
            "cuisines": [
                "Thai",
                "Asian"
            ],
            "lat": 6.1318,
            "lon": 100.3638,
            "description": "Official Kedah Tourism Council registered restaurant",
            "established_year": null,
            "price_range": "$$",
            "address": "No 17 & 18, Kompleks Perniagaan Long Island, 05150 Alor Setar",
            "contact_phone": "",
            "contact_email": "",
            "official_website": "",
            "facebook_url": "",
            "instagram_url": "",
            "tripadvisor_url": "",
            "google_maps_url": "",
            "logo_url": "",
            "cover_image_url": "",
            "gallery_images": [],
            "amenities": {},
            "delivery_available": false,
            "takeaway_available": true,
            "reservation_required": false,
            "dress_code": "",
            "rating_average": 0,
            "total_reviews": 0,
            "is_active": true,
            "is_open": true,
            "owner": 1,
            "owner_username": "admin",
            "created_at": "2025-12-14T17:53:51.195317+08:00",
            "updated_at": "2025-12-30T18:20:20.847053+08:00"
        },
        {
            "id": 85,
            "name": "Asmani Tomyam 2",
            "city": "Alor Setar",
            "cuisines": [
                "Thai",
                "Tomyam"
            ],
            "lat": 6.1198,
            "lon": 100.3678,
            "description": "Official Kedah Tourism Council registered restaurant",
            "established_year": null,
            "price_range": "$",
            "address": "No. 211 Komp. Sultan Abd Hamid, 05050 Alor Setar",
            "contact_phone": "",
            "contact_email": "",
            "official_website": "",
            "facebook_url": "",
            "instagram_url": "",
            "tripadvisor_url": "",
            "google_maps_url": "",
            "logo_url": "",
            "cover_image_url": "",
            "gallery_images": [],
            "amenities": {},
            "delivery_available": false,
            "takeaway_available": true,
            "reservation_required": false,
            "dress_code": "",
            "rating_average": 0,
            "total_reviews": 0,
            "is_active": true,
            "is_open": true,
            "owner": 1,
            "owner_username": "admin",
            "created_at": "2025-12-14T17:53:51.213910+08:00",
            "updated_at": "2025-12-30T18:20:20.848935+08:00"
        },
        {
            "id": 33,
            "name": "Baby Egg Enterprise",
            "city": "Alor Setar",
            "cuisines": [
                "Cafe",
                "Breakfast"
            ],
            "lat": 6.1145,
            "lon": 100.3705,
            "description": "Official Kedah Tourism Council registered restaurant",
            "established_year": null,
            "price_range": "$",
            "address": "21 Kompleks Perusahaan Jalan Pintu Sepuluh, 15100 Alor Setar",
            "contact_phone": "",
            "contact_email": "",
            "official_website": "",
            "facebook_url": "",
            "instagram_url": "",
            "tripadvisor_url": "",
            "google_maps_url": "",
            "logo_url": "",
            "cover_image_url": "",
            "gallery_images": [],
            "amenities": {},
            "delivery_available": false,
            "takeaway_available": true,
            "reservation_required": false,
            "dress_code": "",
            "rating_average": 0,
            "total_reviews": 0,
            "is_active": true,
            "is_open": true,
            "owner": 1,
            "owner_username": "admin",
            "created_at": "2025-12-14T17:53:51.077415+08:00",
            "updated_at": "2025-12-30T18:20:20.850813+08:00"
        },
        {
            "id": 21,
            "name": "Bangkok Shabu and Grilled",
            "city": "Alor Setar",
            "cuisines": [
                "Thai",
                "BBQ"
            ],
            "lat": 6.1425,
            "lon": 100.3835,
            "description": "Official Kedah Tourism Council registered restaurant",
            "established_year": null,
            "price_range": "$$",
            "address": "No. 9 Taman Takwa, 05460 Alor Setar",
            "contact_phone": "",
            "contact_email": "",
            "official_website": "",
            "facebook_url": "",
            "instagram_url": "",
            "tripadvisor_url": "",
            "google_maps_url": "",
            "logo_url": "",
            "cover_image_url": "",
            "gallery_images": [],
            "amenities": {},
            "delivery_available": false,
            "takeaway_available": true,
            "reservation_required": false,
            "dress_code": "",
            "rating_average": 0,
            "total_reviews": 0,
            "is_active": true,
            "is_open": true,
            "owner": 1,
            "owner_username": "admin",
            "created_at": "2025-12-14T17:34:41.761764+08:00",
            "updated_at": "2025-12-30T18:20:20.852249+08:00"
        },
        {
            "id": 72,
            "name": "Bayu Delight Food & Beverage",
            "city": "Alor Setar",
            "cuisines": [
                "Malaysian",
                "Mixed"
            ],
            "lat": 6.1078,
            "lon": 100.3878,
            "description": "Official Kedah Tourism Council registered restaurant",
            "established_year": null,
            "price_range": "$$",
            "address": "No. 65, 66, 67, Pekan Simpang Kuala, 05400 Alor Setar",
            "contact_phone": "",
            "contact_email": "",
            "official_website": "",
            "facebook_url": "",
            "instagram_url": "",
            "tripadvisor_url": "",
            "google_maps_url": "",
            "logo_url": "",
            "cover_image_url": "",
            "gallery_images": [],
            "amenities": {},
            "delivery_available": false,
            "takeaway_available": true,
            "reservation_required": false,
            "dress_code": "",
            "rating_average": 0,
            "total_reviews": 0,
            "is_active": true,
            "is_open": true,
            "owner": 1,
            "owner_username": "admin",
            "created_at": "2025-12-14T17:53:51.180538+08:00",
            "updated_at": "2025-12-30T18:20:20.853577+08:00"
        },
        {
            "id": 38,
            "name": "Billion Kitchen",
            "city": "Alor Setar",
            "cuisines": [
                "Chinese",
                "Asian"
            ],
            "lat": 6.1195,
            "lon": 100.3743,
            "description": "Official Kedah Tourism Council registered restaurant",
            "established_year": null,
            "price_range": "$$",
            "address": "3K03 Aman Central, 05100 Alor Setar",
            "contact_phone": "",
            "contact_email": "",
            "official_website": "",
            "facebook_url": "",
            "instagram_url": "",
            "tripadvisor_url": "",
            "google_maps_url": "",
            "logo_url": "",
            "cover_image_url": "",
            "gallery_images": [],
            "amenities": {},
            "delivery_available": false,
            "takeaway_available": true,
            "reservation_required": false,
            "dress_code": "",
            "rating_average": 0,
            "total_reviews": 0,
            "is_active": true,
            "is_open": true,
            "owner": 1,
            "owner_username": "admin",
            "created_at": "2025-12-14T17:53:51.092692+08:00",
            "updated_at": "2025-12-30T18:20:20.854894+08:00"
        },
        {
            "id": 17,
            "name": "Blind Date Book Cafe",
            "city": "Alor Setar",
            "cuisines": [
                "Cafe",
                "Books"
            ],
            "lat": 6.1157,
            "lon": 100.3717,
            "description": "Official Kedah Tourism Council registered restaurant",
            "established_year": null,
            "price_range": "$$",
            "address": "No. 42, Kompleks Perniagaan Utama, 15150 Alor Setar",
            "contact_phone": "",
            "contact_email": "",
            "official_website": "",
            "facebook_url": "",
            "instagram_url": "",
            "tripadvisor_url": "",
            "google_maps_url": "",
            "logo_url": "",
            "cover_image_url": "",
            "gallery_images": [],
            "amenities": {},
            "delivery_available": false,
            "takeaway_available": true,
            "reservation_required": false,
            "dress_code": "",
            "rating_average": 0,
            "total_reviews": 0,
            "is_active": true,
            "is_open": true,
            "owner": 1,
            "owner_username": "admin",
            "created_at": "2025-12-14T17:34:41.751256+08:00",
            "updated_at": "2025-12-14T17:34:41.751273+08:00"
        },
        {
            "id": 91,
            "name": "Boost",
            "city": "Alor Setar",
            "cuisines": [
                "Juice",
                "Beverages"
            ],
            "lat": 6.1191,
            "lon": 100.3738,
            "description": "Official Kedah Tourism Council registered restaurant",
            "established_year": null,
            "price_range": "$",
            "address": "LG-02, Aman Central, 05100 Alor Setar",
            "contact_phone": "",
            "contact_email": "",
            "official_website": "",
            "facebook_url": "",
            "instagram_url": "",
            "tripadvisor_url": "",
            "google_maps_url": "",
            "logo_url": "",
            "cover_image_url": "",
            "gallery_images": [],
            "amenities": {},
            "delivery_available": false,
            "takeaway_available": true,
            "reservation_required": false,
            "dress_code": "",
            "rating_average": 0,
            "total_reviews": 0,
            "is_active": true,
            "is_open": true,
            "owner": 1,
            "owner_username": "admin",
            "created_at": "2025-12-14T17:53:51.227280+08:00",
            "updated_at": "2025-12-14T17:53:51.227298+08:00"
        },
        {
            "id": 35,
            "name": "Bravo Delight",
            "city": "Alor Setar",
            "cuisines": [
                "Cafe",
                "Western"
            ],
            "lat": 6.1206,
            "lon": 100.3684,
            "description": "Official Kedah Tourism Council registered restaurant",
            "established_year": null,
            "price_range": "$$",
            "address": "No. 58 & 59, Jalan Istana Kuning, 05000 Alor Setar",
            "contact_phone": "",
            "contact_email": "",
            "official_website": "",
            "facebook_url": "",
            "instagram_url": "",
            "tripadvisor_url": "",
            "google_maps_url": "",
            "logo_url": "",
            "cover_image_url": "",
            "gallery_images": [],
            "amenities": {},
            "delivery_available": false,
            "takeaway_available": true,
            "reservation_required": false,
            "dress_code": "",
            "rating_average": 0,
            "total_reviews": 0,
            "is_active": true,
            "is_open": true,
            "owner": 1,
            "owner_username": "admin",
            "created_at": "2025-12-14T17:53:51.082465+08:00",
            "updated_at": "2025-12-14T17:53:51.082507+08:00"
        },
        {
            "id": 96,
            "name": "CG Tea",
            "city": "Alor Setar",
            "cuisines": [
                "Bubble Tea",
                "Beverages"
            ],
            "lat": 6.1195,
            "lon": 100.3742,
            "description": "Official Kedah Tourism Council registered restaurant",
            "established_year": null,
            "price_range": "$",
            "address": "G-61 & G-73, Aman Central, 05100 Alor Setar",
            "contact_phone": "",
            "contact_email": "",
            "official_website": "",
            "facebook_url": "",
            "instagram_url": "",
            "tripadvisor_url": "",
            "google_maps_url": "",
            "logo_url": "",
            "cover_image_url": "",
            "gallery_images": [],
            "amenities": {},
            "delivery_available": false,
            "takeaway_available": true,
            "reservation_required": false,
            "dress_code": "",
            "rating_average": 0,
            "total_reviews": 0,
            "is_active": true,
            "is_open": true,
            "owner": 1,
            "owner_username": "admin",
            "created_at": "2025-12-14T17:53:51.244606+08:00",
            "updated_at": "2025-12-14T17:53:51.244640+08:00"
        },
        {
            "id": 36,
            "name": "Casacafe",
            "city": "Alor Setar",
            "cuisines": [
                "Cafe",
                "Western"
            ],
            "lat": 6.1095,
            "lon": 100.3895,
            "description": "Official Kedah Tourism Council registered restaurant",
            "established_year": null,
            "price_range": "$$",
            "address": "Kompleks Perusahaan Sultan Abdul Hamid, 05400 Alor Setar",
            "contact_phone": "",
            "contact_email": "",
            "official_website": "",
            "facebook_url": "",
            "instagram_url": "",
            "tripadvisor_url": "",
            "google_maps_url": "",
            "logo_url": "",
            "cover_image_url": "",
            "gallery_images": [],
            "amenities": {},
            "delivery_available": false,
            "takeaway_available": true,
            "reservation_required": false,
            "dress_code": "",
            "rating_average": 0,
            "total_reviews": 0,
            "is_active": true,
            "is_open": true,
            "owner": 1,
            "owner_username": "admin",
            "created_at": "2025-12-14T17:53:51.086744+08:00",
            "updated_at": "2025-12-14T17:53:51.086767+08:00"
        },
        {
            "id": 88,
            "name": "Che Siah Tomyam",
            "city": "Alor Setar",
            "cuisines": [
                "Thai",
                "Tomyam"
            ],
            "lat": 6.117,
            "lon": 100.3665,
            "description": "Official Kedah Tourism Council registered restaurant",
            "established_year": null,
            "price_range": "$",
            "address": "404 A, Jalan Sekerat, 05150 Alor Setar",
            "contact_phone": "",
            "contact_email": "",
            "official_website": "",
            "facebook_url": "",
            "instagram_url": "",
            "tripadvisor_url": "",
            "google_maps_url": "",
            "logo_url": "",
            "cover_image_url": "",
            "gallery_images": [],
            "amenities": {},
            "delivery_available": false,
            "takeaway_available": true,
            "reservation_required": false,
            "dress_code": "",
            "rating_average": 0,
            "total_reviews": 0,
            "is_active": true,
            "is_open": true,
            "owner": 1,
            "owner_username": "admin",
            "created_at": "2025-12-14T17:53:51.221752+08:00",
            "updated_at": "2025-12-14T17:53:51.221767+08:00"
        },
        {
            "id": 84,
            "name": "Corner Coffee Shop",
            "city": "Alor Setar",
            "cuisines": [
                "Coffee Shop",
                "Local"
            ],
            "lat": 6.1174,
            "lon": 100.3668,
            "description": "Official Kedah Tourism Council registered restaurant",
            "established_year": null,
            "price_range": "$",
            "address": "No. 6-A, Jalan Tunku Abdul Halim, 05150 Alor Setar",
            "contact_phone": "",
            "contact_email": "",
            "official_website": "",
            "facebook_url": "",
            "instagram_url": "",
            "tripadvisor_url": "",
            "google_maps_url": "",
            "logo_url": "",
            "cover_image_url": "",
            "gallery_images": [],
            "amenities": {},
            "delivery_available": false,
            "takeaway_available": true,
            "reservation_required": false,
            "dress_code": "",
            "rating_average": 0,
            "total_reviews": 0,
            "is_active": true,
            "is_open": true,
            "owner": 1,
            "owner_username": "admin",
            "created_at": "2025-12-14T17:53:51.211482+08:00",
            "updated_at": "2025-12-14T17:53:51.211500+08:00"
        },
        {
            "id": 50,
            "name": "Dania Tomyam Seafood",
            "city": "Alor Setar",
            "cuisines": [
                "Thai",
                "Seafood"
            ],
            "lat": 6.1324,
            "lon": 100.3644,
            "description": "Official Kedah Tourism Council registered restaurant",
            "established_year": null,
            "price_range": "$$",
            "address": "138, Kompleks Shahab Perdana, 05150 Alor Setar",
            "contact_phone": "",
            "contact_email": "",
            "official_website": "",
            "facebook_url": "",
            "instagram_url": "",
            "tripadvisor_url": "",
            "google_maps_url": "",
            "logo_url": "",
            "cover_image_url": "",
            "gallery_images": [],
            "amenities": {},
            "delivery_available": false,
            "takeaway_available": true,
            "reservation_required": false,
            "dress_code": "",
            "rating_average": 0,
            "total_reviews": 0,
            "is_active": true,
            "is_open": true,
            "owner": 1,
            "owner_username": "admin",
            "created_at": "2025-12-14T17:53:51.126775+08:00",
            "updated_at": "2025-12-14T17:53:51.126793+08:00"
        },
        {
            "id": 51,
            "name": "De Baroqah Bistro",
            "city": "Alor Setar",
            "cuisines": [
                "Cafe",
                "Bistro"
            ],
            "lat": 6.192,
            "lon": 100.422,
            "description": "Official Kedah Tourism Council registered restaurant",
            "established_year": null,
            "price_range": "$$",
            "address": "Batu 12 \u00bc Jalan Naka, 06400 Alor Setar",
            "contact_phone": "",
            "contact_email": "",
            "official_website": "",
            "facebook_url": "",
            "instagram_url": "",
            "tripadvisor_url": "",
            "google_maps_url": "",
            "logo_url": "",
            "cover_image_url": "",
            "gallery_images": [],
            "amenities": {},
            "delivery_available": false,
            "takeaway_available": true,
            "reservation_required": false,
            "dress_code": "",
            "rating_average": 0,
            "total_reviews": 0,
            "is_active": true,
            "is_open": true,
            "owner": 1,
            "owner_username": "admin",
            "created_at": "2025-12-14T17:53:51.129090+08:00",
            "updated_at": "2025-12-14T17:53:51.129111+08:00"
        },
        {
            "id": 18,
            "name": "Dome Cafe",
            "city": "Alor Setar",
            "cuisines": [
                "Cafe",
                "Western"
            ],
            "lat": 6.1196,
            "lon": 100.3744,
            "description": "Official Kedah Tourism Council registered restaurant",
            "established_year": null,
            "price_range": "$$$",
            "address": "Aman Central, 05200, Alor Setar",
            "contact_phone": "",
            "contact_email": "",
            "official_website": "",
            "facebook_url": "",
            "instagram_url": "",
            "tripadvisor_url": "",
            "google_maps_url": "",
            "logo_url": "",
            "cover_image_url": "",
            "gallery_images": [],
            "amenities": {},
            "delivery_available": false,
            "takeaway_available": true,
            "reservation_required": false,
            "dress_code": "",
            "rating_average": 0,
            "total_reviews": 0,
            "is_active": true,
            "is_open": true,
            "owner": 1,
            "owner_username": "admin",
            "created_at": "2025-12-14T17:34:41.753865+08:00",
            "updated_at": "2025-12-14T17:34:41.753916+08:00"
        }
    ]
}
